--TEST--
Check test case with complex filters

--SEARCH--
{
	"q": "",
	"attributesToReceive": ["id", "title"],
	"hitsPerPage": 5,
	"filter": "(genres = 'WAR' OR genres = 'Adventure') AND release_date > 0",
	"sort": ["title:asc"]
}

--EXPECT--
{
	"hits": [
	{
		"id": 7840,
		"title": "10,000 BC"
	},
	{
		"id": 1492,
		"title": "1492: Conquest of Paradise"
	},
	{
		"id": 2207,
		"title": "16 Blocks"
	},
	{
		"id": 9510,
		"title": "1\u00bd Knights - In Search of the Ravishing Princess Herzelinde"
	},
	{
		"id": 2965,
		"title": "20,000 Leagues Under the Sea"
	}],
	"query": "",
	"hitsPerPage": 5,
	"page": 1,
	"totalPages": 143,
	"totalHits": 713
}