--TEST--
Searches thousands of documents for "Botman" (typo) and a genre filter

--SEARCH--
{
	"q": "Botman",
	"attributesToReceive": ["id", "title", "genres"],
	"hitsPerPage": 5,
    "filter": "genres = 'Action'",
	"sort": ["title:asc"]
}

--EXPECT--
{
	"hits": [{
		"id": 268,
		"title": "Batman",
		"genres": ["Fantasy", "Action"]
	}, {
		"id": 15805,
		"title": "Batman & Mr. Freeze: SubZero",
		"genres": ["Animation", "Action", "Crime", "Family"]
	}, {
		"id": 415,
		"title": "Batman & Robin",
		"genres": ["Science Fiction", "Action", "Fantasy"]
	}, {
		"id": 272,
		"title": "Batman Begins",
		"genres": ["Action", "Crime", "Drama"]
	}, {
		"id": 16234,
		"title": "Batman Beyond: Return of the Joker",
		"genres": ["Animation", "Family", "Action", "Science Fiction"]
	}],
	"query": "Botman",
	"hitsPerPage": 5,
	"page": 1,
	"totalPages": 10,
	"totalHits": 47
}

--EXPECT-MAX-PROCESSING-TIME--
600


